[api-updater (non-obsolete-error-filter)] 4/5/2022 2:07:43 PM : Starting C:/Program Files/Unity/Hub/Editor/2020.3.28f1/Editor/Data/Tools/ScriptUpdater/APIUpdater.NonObsoleteApiUpdaterDetector.exe
[api-updater (non-obsolete-error-filter)] 
----------------------------------
jit/startup time      : 614.1533ms
moved types parse time: 39ms
candidates parse time : 0ms
C# parse time         : 470ms
candidates check time : 61ms
console write time    : 0ms

[api-updater (non-obsolete-error-filter)] 4/5/2022 2:11:58 PM : Starting C:/Program Files/Unity/Hub/Editor/2020.3.28f1/Editor/Data/Tools/ScriptUpdater/APIUpdater.NonObsoleteApiUpdaterDetector.exe
[api-updater (non-obsolete-error-filter)] 
----------------------------------
jit/startup time      : 54.0096ms
moved types parse time: 39ms
candidates parse time : 0ms
C# parse time         : 146ms
candidates check time : 64ms
console write time    : 0ms

[api-updater (non-obsolete-error-filter)] 4/5/2022 2:12:35 PM : Starting C:/Program Files/Unity/Hub/Editor/2020.3.28f1/Editor/Data/Tools/ScriptUpdater/APIUpdater.NonObsoleteApiUpdaterDetector.exe
[api-updater (non-obsolete-error-filter)] 
----------------------------------
jit/startup time      : 52.5096ms
moved types parse time: 41ms
candidates parse time : 0ms
C# parse time         : 141ms
candidates check time : 33ms
console write time    : 0ms

[api-updater (non-obsolete-error-filter)] 4/5/2022 2:12:54 PM : Starting C:/Program Files/Unity/Hub/Editor/2020.3.28f1/Editor/Data/Tools/ScriptUpdater/APIUpdater.NonObsoleteApiUpdaterDetector.exe
[api-updater (non-obsolete-error-filter)] 
----------------------------------
jit/startup time      : 51.0096ms
moved types parse time: 40ms
candidates parse time : 0ms
C# parse time         : 144ms
candidates check time : 28ms
console write time    : 0ms

[api-updater (non-obsolete-error-filter)] 4/5/2022 2:13:33 PM : Starting C:/Program Files/Unity/Hub/Editor/2020.3.28f1/Editor/Data/Tools/ScriptUpdater/APIUpdater.NonObsoleteApiUpdaterDetector.exe
[api-updater (non-obsolete-error-filter)] 
----------------------------------
jit/startup time      : 52.009ms
moved types parse time: 37ms
candidates parse time : 0ms
C# parse time         : 153ms
candidates check time : 30ms
console write time    : 0ms

[api-updater (non-obsolete-error-filter)] 4/20/2022 8:57:30 AM : Starting C:/Program Files/Unity/Hub/Editor/2020.3.28f1/Editor/Data/Tools/ScriptUpdater/APIUpdater.NonObsoleteApiUpdaterDetector.exe
[api-updater (non-obsolete-error-filter)] 
----------------------------------
jit/startup time      : 568.6991ms
moved types parse time: 38ms
candidates parse time : 0ms
C# parse time         : 489ms
candidates check time : 25ms
console write time    : 0ms

[api-updater (non-obsolete-error-filter)] 4/20/2022 10:19:20 AM : Starting C:/Program Files/Unity/Hub/Editor/2020.3.28f1/Editor/Data/Tools/ScriptUpdater/APIUpdater.NonObsoleteApiUpdaterDetector.exe
[api-updater (non-obsolete-error-filter)] 
----------------------------------
jit/startup time      : 50.5089ms
moved types parse time: 36ms
candidates parse time : 0ms
C# parse time         : 124ms
candidates check time : 20ms
console write time    : 0ms

[api-updater (non-obsolete-error-filter)] 4/27/2022 1:02:08 PM : Starting C:/Program Files/Unity/Hub/Editor/2020.3.28f1/Editor/Data/Tools/ScriptUpdater/APIUpdater.NonObsoleteApiUpdaterDetector.exe
[api-updater (non-obsolete-error-filter)] 
----------------------------------
jit/startup time      : 628.1173ms
moved types parse time: 39ms
candidates parse time : 0ms
C# parse time         : 448ms
candidates check time : 31ms
console write time    : 0ms

[api-updater (non-obsolete-error-filter)] 4/29/2022 1:15:16 PM : Starting C:/Program Files/Unity/Hub/Editor/2020.3.28f1/Editor/Data/Tools/ScriptUpdater/APIUpdater.NonObsoleteApiUpdaterDetector.exe
[api-updater (non-obsolete-error-filter)] 
----------------------------------
jit/startup time      : 642.033ms
moved types parse time: 40ms
candidates parse time : 0ms
C# parse time         : 468ms
candidates check time : 30ms
console write time    : 0ms

[api-updater (non-obsolete-error-filter)] 4/29/2022 1:16:40 PM : Starting C:/Program Files/Unity/Hub/Editor/2020.3.28f1/Editor/Data/Tools/ScriptUpdater/APIUpdater.NonObsoleteApiUpdaterDetector.exe
[api-updater (non-obsolete-error-filter)] 
----------------------------------
jit/startup time      : 51.0088ms
moved types parse time: 36ms
candidates parse time : 1ms
C# parse time         : 136ms
candidates check time : 29ms
console write time    : 0ms

[api-updater (non-obsolete-error-filter)] 4/29/2022 1:16:47 PM : Starting C:/Program Files/Unity/Hub/Editor/2020.3.28f1/Editor/Data/Tools/ScriptUpdater/APIUpdater.NonObsoleteApiUpdaterDetector.exe
[api-updater (non-obsolete-error-filter)] 
----------------------------------
jit/startup time      : 49.5087ms
moved types parse time: 37ms
candidates parse time : 1ms
C# parse time         : 139ms
candidates check time : 34ms
console write time    : 0ms

[api-updater (non-obsolete-error-filter)] 4/29/2022 1:16:54 PM : Starting C:/Program Files/Unity/Hub/Editor/2020.3.28f1/Editor/Data/Tools/ScriptUpdater/APIUpdater.NonObsoleteApiUpdaterDetector.exe
[api-updater (non-obsolete-error-filter)] 
----------------------------------
jit/startup time      : 51.5087ms
moved types parse time: 37ms
candidates parse time : 0ms
C# parse time         : 136ms
candidates check time : 31ms
console write time    : 0ms

[api-updater (non-obsolete-error-filter)] 4/29/2022 1:17:26 PM : Starting C:/Program Files/Unity/Hub/Editor/2020.3.28f1/Editor/Data/Tools/ScriptUpdater/APIUpdater.NonObsoleteApiUpdaterDetector.exe
[api-updater (non-obsolete-error-filter)] 
----------------------------------
jit/startup time      : 54.0099ms
moved types parse time: 36ms
candidates parse time : 0ms
C# parse time         : 137ms
candidates check time : 29ms
console write time    : 0ms

[api-updater (non-obsolete-error-filter)] 4/29/2022 1:17:45 PM : Starting C:/Program Files/Unity/Hub/Editor/2020.3.28f1/Editor/Data/Tools/ScriptUpdater/APIUpdater.NonObsoleteApiUpdaterDetector.exe
[api-updater (non-obsolete-error-filter)] 
----------------------------------
jit/startup time      : 50.5089ms
moved types parse time: 37ms
candidates parse time : 0ms
C# parse time         : 136ms
candidates check time : 31ms
console write time    : 0ms

